\relax 
\bbl@beforestart
\catcode `"\active 
\babel@aux{german}{}
\@writefile{toc}{\contentsline {section}{\numberline {1}Einleitung}{3}\protected@file@percent }
\@writefile{toc}{\contentsline {subsection}{\numberline {1.1}Algorithmus}{3}\protected@file@percent }
\@writefile{toc}{\contentsline {subsection}{\numberline {1.2}$\mathcal  {O}$-Notation}{4}\protected@file@percent }
\@writefile{toc}{\contentsline {section}{\numberline {2}Reihungen und Listen}{7}\protected@file@percent }
\@writefile{toc}{\contentsline {subsection}{\numberline {2.1}Einfache Datenstrukturen und ihre (typischen) Operationen}{7}\protected@file@percent }
\@writefile{toc}{\contentsline {subsection}{\numberline {2.2}Programmierbeispiel mit verketteten Listen (Java)}{8}\protected@file@percent }
\@writefile{toc}{\contentsline {subsection}{\numberline {2.3}Stack, Queue, Deque}{9}\protected@file@percent }
\@writefile{toc}{\contentsline {subsection}{\numberline {2.4}Queue als Reihung implementiert}{10}\protected@file@percent }
\@writefile{toc}{\contentsline {subsection}{\numberline {2.5}Binäre Suche}{11}\protected@file@percent }
\@writefile{toc}{\contentsline {subsection}{\numberline {2.6}Interpolierende Suche}{12}\protected@file@percent }
\@writefile{toc}{\contentsline {subsection}{\numberline {2.7}Randomisierte Skiplisten}{13}\protected@file@percent }
\@writefile{toc}{\contentsline {section}{\numberline {3}Graphen}{14}\protected@file@percent }
\@writefile{toc}{\contentsline {subsection}{\numberline {3.1}Grundlegende Definitionen}{14}\protected@file@percent }
\@writefile{toc}{\contentsline {subsubsection}{\numberline {3.1.1}Die Small-World-Hypothese}{15}\protected@file@percent }
\@writefile{toc}{\contentsline {subsection}{\numberline {3.2}Implementierung}{16}\protected@file@percent }
\@writefile{toc}{\contentsline {subsubsection}{\numberline {3.2.1}Adjazenzmatrix}{16}\protected@file@percent }
\@writefile{toc}{\contentsline {subsubsection}{\numberline {3.2.2}Adjazenzlisten}{16}\protected@file@percent }
\@writefile{toc}{\contentsline {subsection}{\numberline {3.3}Durchwandern von Graphen (Traversierung)}{17}\protected@file@percent }
\@writefile{toc}{\contentsline {subsubsection}{\numberline {3.3.1}Tiefensuche (Depth First Search DFS)}{17}\protected@file@percent }
\@writefile{toc}{\contentsline {subsubsection}{\numberline {3.3.2}Breitensuche (Breadth First Search BFS)}{20}\protected@file@percent }
\@writefile{toc}{\contentsline {subsection}{\numberline {3.4}Transitive Hülle}{21}\protected@file@percent }
\@writefile{toc}{\contentsline {subsection}{\numberline {3.5}Kürzeste Wege}{24}\protected@file@percent }
\@writefile{toc}{\contentsline {subsection}{\numberline {3.6}Flussprobleme}{26}\protected@file@percent }
\@writefile{toc}{\contentsline {subsection}{\numberline {3.7}Minimal aufspannende Bäume (MAB)}{29}\protected@file@percent }
\@writefile{toc}{\contentsline {subsection}{\numberline {3.8}Paarungen (Matchings)}{30}\protected@file@percent }
\@writefile{toc}{\contentsline {section}{\numberline {4}Bäume}{32}\protected@file@percent }
\@writefile{toc}{\contentsline {subsection}{\numberline {4.1}Definitionen und Eigenschaften}{32}\protected@file@percent }
\@writefile{toc}{\contentsline {subsection}{\numberline {4.2}Binärbäume und n-Bäume}{33}\protected@file@percent }
\@writefile{toc}{\contentsline {subsubsection}{\numberline {4.2.1}Traversieren von Binärbäumen:}{33}\protected@file@percent }
\@writefile{toc}{\contentsline {subsubsection}{\numberline {4.2.2}Implementierung}{34}\protected@file@percent }
\@writefile{toc}{\contentsline {subsection}{\numberline {4.3}Heaps}{35}\protected@file@percent }
\@writefile{toc}{\contentsline {subsection}{\numberline {4.4}Binäre Suchbäume}{36}\protected@file@percent }
\@writefile{toc}{\contentsline {subsection}{\numberline {4.5}AVL-Bäume}{37}\protected@file@percent }
\@writefile{toc}{\contentsline {subsection}{\numberline {4.6}B-Bäume}{38}\protected@file@percent }
\@writefile{toc}{\contentsline {section}{\numberline {5}Hash-Tabellen (Streuspeicherung)}{39}\protected@file@percent }
\@writefile{toc}{\contentsline {subsection}{\numberline {5.1}Einführung}{39}\protected@file@percent }
\@writefile{toc}{\contentsline {subsection}{\numberline {5.2}Wahl der Hash-Funktion $h$}{39}\protected@file@percent }
\@writefile{toc}{\contentsline {subsection}{\numberline {5.3}Behandlung von Kollisionen}{40}\protected@file@percent }
\@writefile{toc}{\contentsline {subsection}{\numberline {5.4}Offenes Hashing}{40}\protected@file@percent }
\@writefile{toc}{\contentsline {subsection}{\numberline {5.5}Kollisionsauflösung durch Verkettung (=chaining)}{42}\protected@file@percent }
\@writefile{toc}{\contentsline {subsection}{\numberline {5.6}Dynamic Hashing}{42}\protected@file@percent }
\@writefile{toc}{\contentsline {subsection}{\numberline {5.7}Löschen in Hash-Tabellen}{43}\protected@file@percent }
